Enter Required Lenght for the array : 
Enter element 1 of 10 : 
Enter element 2 of 10 : 
Enter element 3 of 10 : 
Enter element 4 of 10 : 
Enter element 5 of 10 : 
Enter element 6 of 10 : 
Enter element 7 of 10 : 
Enter element 8 of 10 : 
Enter element 9 of 10 : 
Enter element 10 of 10 : 

[ 50, 20, 30, 70, 10, 90, 100, 230, 450, 230,  ]


Enter Search Key : 
Searching for 10 in array : 
KEY : 10 IS FOUND AT INDEX 4.
